…
d_aggregated = d %>%
  group_by(treatment, actor, side, condition) %>% 
  summarize(pulled_left = sum(pulled_left))

d_aggregated
```

    ## # A tibble: 28 x 5
    ## # Groups:   treatment, actor, side [28]
    ##    treatment actor  side condition pulled_left
    ##        <dbl> <int> <dbl>     <int>       <int>
    ##  1         1     1     1         0           6
    ##  2         1     2     1         0          18
    ##  3         1     3     1         0           5
    ##  4         1     4     1         0           6
    ##  5         1     5     1         0           6
    ##  6         1     6     1         0          14
    ##  7         1     7     1         0          14
    ##  8         2     1     2         0           9
    ##  9         2     2     2         0          18
    ## 10         2     3     2         0          11
    ## # … with 18 more rows
…
